<svg xmlns="http://www.w3.org/2000/svg" width="55.971" height="64.62" viewBox="0 0 55.971 64.62">
  <g id="Group_4832" data-name="Group 4832" transform="translate(-58.738 -257.563)">
    <g id="Group_4829" data-name="Group 4829" transform="translate(58.738 257.563)">
      <g id="Group_4828" data-name="Group 4828">
        <path id="Path_3111" data-name="Path 3111" d="M142.2,116.778l-.594,1.227a23.539,23.539,0,0,1-6.226,7.939c-.083,2.979-.166,6.373-.1,6.7.07.352-3.337-1.451-6.156-2.992a24.648,24.648,0,0,1-9.167,1.751,23.867,23.867,0,0,1-20.986-35.42,23.655,23.655,0,0,1,20.909-12.465,20.27,20.27,0,0,1,4.916.588l-1.636,3.931,13.385-.876L129.625,74.87l-1.215,2.014c-.1.166-.192.3-.275.422a3.784,3.784,0,0,0-.556,1.061c-.275.933-.473.933-.825.933a4.627,4.627,0,0,1-.965-.134,27.75,27.75,0,0,0-6-.658A28.959,28.959,0,0,0,102.8,130.841a29.335,29.335,0,0,0,17.2,5.6,28.663,28.663,0,0,0,9.646-1.675c2.167,1.215,9.3,5.191,9.2,4.679-.1-.486.121-7.549.2-10.228a29.042,29.042,0,0,0,2.915-2.966,37.961,37.961,0,0,0,2.845-4c.4-.62.812-1.259,1.24-1.886l.908-1.323Z" transform="translate(-90.99 -74.87)" fill="#003a74"/>
        <g id="Group_4827" data-name="Group 4827" transform="translate(15.629 30.734)">
          <path id="Path_3112" data-name="Path 3112" d="M121.9,126.178a3.228,3.228,0,1,1-3.228-3.228A3.227,3.227,0,0,1,121.9,126.178Z" transform="translate(-115.44 -122.95)" fill="#003a74" fill-rule="evenodd"/>
          <path id="Path_3113" data-name="Path 3113" d="M137.176,126.178a3.228,3.228,0,1,1-3.228-3.228A3.227,3.227,0,0,1,137.176,126.178Z" transform="translate(-120.953 -122.95)" fill="#003a74" fill-rule="evenodd"/>
          <path id="Path_3114" data-name="Path 3114" d="M152.456,126.178a3.228,3.228,0,1,1-3.228-3.228A3.227,3.227,0,0,1,152.456,126.178Z" transform="translate(-126.465 -122.95)" fill="#003a74" fill-rule="evenodd"/>
        </g>
      </g>
    </g>
  </g>
</svg>
