<svg xmlns="http://www.w3.org/2000/svg" xmlns:xlink="http://www.w3.org/1999/xlink" width="611.15601" height="858.89697" viewBox="0 0 611.15601 858.89697">
  <defs>
    <clipPath id="clip-path">
      <rect width="76" height="87.6721" style="fill: none"/>
    </clipPath>
    <clipPath id="clip-path-2" transform="translate(-0.00062 -0.00104)">
      <rect width="611.15565" height="858.89801" style="fill: none"/>
    </clipPath>
    <pattern id="Unnamed_Pattern" data-name="Unnamed Pattern" width="76" height="87.6721" patternTransform="matrix(1, 0, 0, -1, 920.15444, 16100.4892)" patternUnits="userSpaceOnUse" viewBox="0 0 76 87.672">
      <rect width="76" height="87.6721" style="fill: none"/>
      <g style="clip-path: url(#clip-path)">
        <path d="M69.3363-5.2246l-.4-.583c-.188-.276-.37-.557-.546-.83a16.62729,16.62729,0,0,0-1.253-1.762,12.77641,12.77641,0,0,0-1.284-1.307c-.035-1.179-.132-4.29-.088-4.504.044-.226-3.098,1.525-4.052,2.06a12.63652,12.63652,0,0,0-4.249-.737,12.917,12.917,0,0,0-7.575,2.466,12.7538,12.7538,0,0,0-5.225,10.248,12.75474,12.75474,0,0,0,12.707,12.802,12.17462,12.17462,0,0,0,2.643-.29,2.10187,2.10187,0,0,1,.425-.059c.155,0,.242,0,.363.411a1.66787,1.66787,0,0,0,.245.467c.037.054.077.113.121.186l.536.887,3.047-5.413-5.895-.386.721,1.731a8.8835,8.8835,0,0,1-2.166.259,10.41671,10.41671,0,0,1-9.209-5.49,10.51929,10.51929,0,0,1-1.314-5.133,10.51225,10.51225,0,0,1,10.557-10.467,10.84392,10.84392,0,0,1,4.038.771,13.46875,13.46875,0,0,1,2.711-1.318c-.029.144.008,1.639.044,2.951a10.3803,10.3803,0,0,1,2.743,3.497l.261.54Z" style="fill: #ea424a"/>
        <path d="M54.4162-.7268a1.42159,1.42159,0,0,1-1.422,1.421,1.42245,1.42245,0,0,1-1.422-1.422,1.42245,1.42245,0,0,1,1.422-1.422,1.42245,1.42245,0,0,1,1.422,1.422Z" style="fill: #ea424a;fill-rule: evenodd"/>
        <path d="M58.7163-.7268a1.42159,1.42159,0,0,1-1.422,1.421,1.42245,1.42245,0,0,1-1.422-1.422,1.42245,1.42245,0,0,1,1.422-1.422,1.42245,1.42245,0,0,1,1.422,1.422Z" style="fill: #ea424a;fill-rule: evenodd"/>
        <path d="M63.0186-.7268a1.42159,1.42159,0,0,1-1.422,1.421,1.42245,1.42245,0,0,1-1.422-1.422,1.42245,1.42245,0,0,1,1.422-1.422,1.42245,1.42245,0,0,1,1.422,1.422Z" style="fill: #ea424a;fill-rule: evenodd"/>
        <path d="M31.3363-5.2246l-.4-.583c-.188-.276-.37-.557-.546-.83a16.62786,16.62786,0,0,0-1.253-1.762,12.77664,12.77664,0,0,0-1.284-1.307c-.035-1.179-.132-4.29-.088-4.504.044-.226-3.098,1.525-4.052,2.06a12.63651,12.63651,0,0,0-4.249-.737,12.917,12.917,0,0,0-7.575,2.466A12.7538,12.7538,0,0,0,6.6643-.1736a12.75474,12.75474,0,0,0,12.707,12.802,12.17464,12.17464,0,0,0,2.643-.29,2.10185,2.10185,0,0,1,.425-.059c.155,0,.242,0,.363.411a1.66783,1.66783,0,0,0,.245.467c.037.054.077.113.121.186l.536.887,3.047-5.413-5.895-.386.721,1.731a8.88352,8.88352,0,0,1-2.166.259,10.41671,10.41671,0,0,1-9.209-5.49,10.51929,10.51929,0,0,1-1.314-5.133,10.51224,10.51224,0,0,1,10.557-10.467,10.84391,10.84391,0,0,1,4.038.771,13.46861,13.46861,0,0,1,2.711-1.318c-.029.144.008,1.639.044,2.951a10.38034,10.38034,0,0,1,2.743,3.497l.261.54Z" style="fill: #ea424a"/>
        <path d="M16.4162-.7268a1.42159,1.42159,0,0,1-1.422,1.421,1.42245,1.42245,0,0,1-1.422-1.422,1.42245,1.42245,0,0,1,1.422-1.422,1.42245,1.42245,0,0,1,1.422,1.422Z" style="fill: #ea424a;fill-rule: evenodd"/>
        <path d="M20.7163-.7268a1.42159,1.42159,0,0,1-1.422,1.421,1.42245,1.42245,0,0,1-1.422-1.422,1.42245,1.42245,0,0,1,1.422-1.422,1.42245,1.42245,0,0,1,1.422,1.422Z" style="fill: #ea424a;fill-rule: evenodd"/>
        <path d="M25.0186-.7268a1.42159,1.42159,0,0,1-1.422,1.421,1.42245,1.42245,0,0,1-1.422-1.422,1.42245,1.42245,0,0,1,1.422-1.422,1.42245,1.42245,0,0,1,1.422,1.422Z" style="fill: #ea424a;fill-rule: evenodd"/>
        <path d="M88.3363,38.6115l-.4-.583c-.188-.276-.37-.557-.546-.83a16.62765,16.62765,0,0,0-1.253-1.762,12.7764,12.7764,0,0,0-1.284-1.307c-.035-1.179-.132-4.29-.088-4.504.044-.226-3.098,1.525-4.052,2.06a12.63656,12.63656,0,0,0-4.249-.737,12.91707,12.91707,0,0,0-7.575,2.466,12.755,12.755,0,0,0,7.482,23.05,12.1746,12.1746,0,0,0,2.643-.29,2.1019,2.1019,0,0,1,.425-.059c.155,0,.242,0,.363.411a1.66781,1.66781,0,0,0,.245.467c.037.054.077.113.121.186l.536.887,3.047-5.413-5.895-.386.721,1.731a8.88346,8.88346,0,0,1-2.166.259,10.545,10.545,0,0,1,.034-21.09,10.84383,10.84383,0,0,1,4.038.771,13.46876,13.46876,0,0,1,2.711-1.318c-.029.144.008,1.639.044,2.951a10.38029,10.38029,0,0,1,2.743,3.497l.261.54Z" style="fill: #ea424a"/>
        <path d="M73.4162,43.1093a1.4225,1.4225,0,1,1,0-.001Z" style="fill: #ea424a;fill-rule: evenodd"/>
        <path d="M77.7163,43.1093a1.4225,1.4225,0,1,1,0-.001Z" style="fill: #ea424a;fill-rule: evenodd"/>
        <path d="M50.3363,38.6115l-.4-.583c-.188-.276-.37-.557-.546-.83a16.6282,16.6282,0,0,0-1.253-1.762,12.77683,12.77683,0,0,0-1.284-1.307c-.035-1.179-.132-4.29-.088-4.504.044-.226-3.098,1.525-4.052,2.06a12.63652,12.63652,0,0,0-4.249-.737,12.917,12.917,0,0,0-7.575,2.466,12.755,12.755,0,0,0,7.482,23.05,12.17462,12.17462,0,0,0,2.643-.29,2.10187,2.10187,0,0,1,.425-.059c.155,0,.242,0,.363.411a1.6679,1.6679,0,0,0,.245.467c.037.054.077.113.121.186l.536.887,3.047-5.413-5.895-.386.721,1.731a8.88346,8.88346,0,0,1-2.166.259,10.545,10.545,0,0,1,.034-21.09,10.84386,10.84386,0,0,1,4.038.771,13.46866,13.46866,0,0,1,2.711-1.318c-.029.144.008,1.639.044,2.951a10.38028,10.38028,0,0,1,2.743,3.497l.261.54Z" style="fill: #ea424a"/>
        <path d="M35.4162,43.1093a1.4225,1.4225,0,1,1,0-.001Z" style="fill: #ea424a;fill-rule: evenodd"/>
        <path d="M39.7163,43.1093a1.4225,1.4225,0,1,1,0-.001Z" style="fill: #ea424a;fill-rule: evenodd"/>
        <path d="M44.0186,43.1093a1.4225,1.4225,0,1,1,0-.001Z" style="fill: #ea424a;fill-rule: evenodd"/>
        <path d="M12.3363,38.6115l-.4-.583c-.188-.276-.37-.557-.546-.83a16.62836,16.62836,0,0,0-1.253-1.762,12.77674,12.77674,0,0,0-1.284-1.307c-.035-1.179-.132-4.29-.088-4.504.044-.226-3.098,1.525-4.052,2.06a12.63652,12.63652,0,0,0-4.249-.737,12.917,12.917,0,0,0-7.575,2.466,12.755,12.755,0,0,0,7.482,23.05,12.17465,12.17465,0,0,0,2.643-.29,2.10185,2.10185,0,0,1,.425-.059c.155,0,.242,0,.363.411a1.66788,1.66788,0,0,0,.245.467c.037.054.077.113.121.186l.536.887,3.047-5.413-5.895-.386.721,1.731a8.88348,8.88348,0,0,1-2.166.259,10.41672,10.41672,0,0,1-9.209-5.49,10.51929,10.51929,0,0,1-1.314-5.133A10.51224,10.51224,0,0,1,.4453,33.1675a10.84384,10.84384,0,0,1,4.038.771,13.46868,13.46868,0,0,1,2.711-1.318c-.029.144.008,1.639.044,2.951a10.38035,10.38035,0,0,1,2.743,3.497l.261.54Z" style="fill: #ea424a"/>
        <path d="M1.7163,43.1093a1.4225,1.4225,0,1,1,0-.001Z" style="fill: #ea424a;fill-rule: evenodd"/>
        <path d="M6.0186,43.1093a1.4225,1.4225,0,1,1,0-.001Z" style="fill: #ea424a;fill-rule: evenodd"/>
        <path d="M69.3363,82.4476l-.4-.583c-.188-.276-.37-.557-.546-.83a16.62726,16.62726,0,0,0-1.253-1.762,12.776,12.776,0,0,0-1.284-1.307c-.035-1.179-.132-4.29-.088-4.504.044-.226-3.098,1.525-4.052,2.06a12.63652,12.63652,0,0,0-4.249-.737,12.917,12.917,0,0,0-7.575,2.466,12.755,12.755,0,0,0,7.482,23.05,12.17462,12.17462,0,0,0,2.643-.29,2.10186,2.10186,0,0,1,.425-.059c.155,0,.242,0,.363.411a1.66783,1.66783,0,0,0,.245.467c.037.054.077.113.121.186l.536.887,3.047-5.413-5.895-.386.721,1.731a8.88346,8.88346,0,0,1-2.166.259,10.545,10.545,0,0,1,.034-21.09,10.84378,10.84378,0,0,1,4.038.771,13.46878,13.46878,0,0,1,2.711-1.318c-.029.144.008,1.639.044,2.951a10.38024,10.38024,0,0,1,2.743,3.497l.261.54Z" style="fill: #ea424a"/>
        <path d="M54.4162,86.9454a1.4225,1.4225,0,1,1,0-.001Z" style="fill: #ea424a;fill-rule: evenodd"/>
        <path d="M58.7163,86.9454a1.4225,1.4225,0,1,1,0-.001Z" style="fill: #ea424a;fill-rule: evenodd"/>
        <path d="M63.0186,86.9454a1.4225,1.4225,0,1,1,0-.001Z" style="fill: #ea424a;fill-rule: evenodd"/>
        <path d="M31.3363,82.4476l-.4-.583c-.188-.276-.37-.557-.546-.83a16.62782,16.62782,0,0,0-1.253-1.762,12.77625,12.77625,0,0,0-1.284-1.307c-.035-1.179-.132-4.29-.088-4.504.044-.226-3.098,1.525-4.052,2.06a12.63651,12.63651,0,0,0-4.249-.737,12.917,12.917,0,0,0-7.575,2.466,12.755,12.755,0,0,0,7.482,23.05,12.17464,12.17464,0,0,0,2.643-.29,2.10185,2.10185,0,0,1,.425-.059c.155,0,.242,0,.363.411a1.66778,1.66778,0,0,0,.245.467c.037.054.077.113.121.186l.536.887,3.047-5.413-5.895-.386.721,1.731a8.88347,8.88347,0,0,1-2.166.259,10.545,10.545,0,0,1,.034-21.09,10.84377,10.84377,0,0,1,4.038.771,13.46865,13.46865,0,0,1,2.711-1.318c-.029.144.008,1.639.044,2.951a10.38028,10.38028,0,0,1,2.743,3.497l.261.54Z" style="fill: #ea424a"/>
        <path d="M16.4162,86.9454a1.4225,1.4225,0,1,1,0-.001Z" style="fill: #ea424a;fill-rule: evenodd"/>
        <path d="M20.7163,86.9454a1.4225,1.4225,0,1,1,0-.001Z" style="fill: #ea424a;fill-rule: evenodd"/>
        <path d="M25.0186,86.9454a1.4225,1.4225,0,1,1,0-.001Z" style="fill: #ea424a;fill-rule: evenodd"/>
      </g>
    </pattern>
  </defs>
  <title>Asset 4</title>
  <g id="Layer_2" data-name="Layer 2">
    <g id="Layer_1-2" data-name="Layer 1">
      <g style="clip-path: url(#clip-path-2)">
        <rect width="611.15601" height="858.89697" style="fill: url(#Unnamed_Pattern)"/>
      </g>
    </g>
  </g>
</svg>
